…
</details>

<details><summary><strong>tool result: toolu_01PXyhktK1fgvGoSa9bEakF4</strong></summary>

**success:** true

```txt
┌────────────────────────────┬───────────────────────┬───────────────────────┬────────────────┐
│          database          │       language        │ commits_touching_lang │ pct_of_commits │
│          varchar           │        varchar        │         int64         │     float      │
├────────────────────────────┼───────────────────────┼───────────────────────┼────────────────┤
│ ClickHouse/ClickHouse      │ C++                   │                 85286 │           58.1 │
│ ClickHouse/ClickHouse      │ Documentation         │                 24895 │           17.0 │
│ ClickHouse/ClickHouse      │ SQL                   │                 18392 │           12.5 │
│ ClickHouse/ClickHouse      │ Python                │                 15307 │           10.4 │
│ ClickHouse/ClickHouse      │ Config                │                  2595 │            1.8 │
│ ClickHouse/ClickHouse      │ JavaScript/TypeScript │                   230 │            0.2 │
│ ClickHouse/ClickHouse      │ Rust                  │                    55 │            0.0 │
│ ClickHouse/ClickHouse      │ Go                    │                    35 │            0.0 │
│ ClickHouse/ClickHouse      │ Java                  │                    16 │            0.0 │
│ MaterializeInc/materialize │ Rust                  │                 17567 │           48.3 │
│ MaterializeInc/materialize │ Config                │                  6777 │           18.6 │
│ MaterializeInc/materialize │ Python                │                  6226 │           17.1 │
│ MaterializeInc/materialize │ Documentation         │                  5278 │           14.5 │
│ MaterializeInc/materialize │ SQL                   │                   334 │            0.9 │
│ MaterializeInc/materialize │ C++                   │                    92 │            0.3 │
│ MaterializeInc/materialize │ JavaScript/TypeScript │                    69 │            0.2 │
│ MaterializeInc/materialize │ Java                  │                    22 │            0.1 │
│ MaterializeInc/materialize │ Go                    │                    15 │            0.0 │
│ StarRocks/starrocks        │ Java                  │                  9878 │           38.6 │
│ StarRocks/starrocks        │ C++                   │                  7334 │           28.7 │
│          ·                 │  ·                    │                    ·  │             ·  │
│          ·                 │  ·                    │                    ·  │             ·  │
│          ·                 │  ·                    │                    ·  │             ·  │
│ risingwavelabs/risingwave  │ Rust                  │                 10646 │           57.7 │
│ risingwavelabs/risingwave  │ Config                │                  5156 │           28.0 │
│ risingwavelabs/risingwave  │ Documentation         │                   769 │            4.2 │
│ risingwavelabs/risingwave  │ Java                  │                   667 │            3.6 │
│ risingwavelabs/risingwave  │ Python                │                   590 │            3.2 │
│ risingwavelabs/risingwave  │ SQL                   │                   316 │            1.7 │
│ risingwavelabs/risingwave  │ JavaScript/TypeScript │                   275 │            1.5 │
│ risingwavelabs/risingwave  │ Go                    │                    14 │            0.1 │
│ risingwavelabs/risingwave  │ C++                   │                    13 │            0.1 │
│ timescale/timescaledb      │ SQL                   │                  2795 │           40.2 │
│ timescale/timescaledb      │ Documentation         │                  1619 │           23.3 │
│ timescale/timescaledb      │ C++                   │                  1534 │           22.0 │
│ timescale/timescaledb      │ Config                │                   782 │           11.2 │
│ timescale/timescaledb      │ Python                │                   227 │            3.3 │
│ trinodb/trino              │ Java                  │                 35256 │           84.7 │
│ trinodb/trino              │ Documentation         │                  4518 │           10.9 │
│ trinodb/trino              │ Config                │                  1282 │            3.1 │
│ trinodb/trino              │ JavaScript/TypeScript │                   278 │            0.7 │
│ trinodb/trino              │ SQL                   │                   195 │            0.5 │
│ trinodb/trino              │ Python                │                    92 │            0.2 │
├────────────────────────────┴───────────────────────┴───────────────────────┴────────────────┤
│ 91 rows (40 shown)                                                                4 columns │
└────────────────────────────────────[90m─────────────────────────────────────────────────────────┘
…
</details>

<details><summary><strong>tool result: toolu_01QCym2j5U9vJZNm41TSpPXq</strong></summary>

**success:** true

```txt
┌────────────────────────────┬───────────────┬─────────┬─────────────┬───────────┐
│          database          │  commit_type  │ commits │ pct_commits │ avg_lines │
│          varchar           │    varchar    │  int64  │    float    │  double   │
├────────────────────────────┼───────────────┼─────────┼─────────────┼───────────┤
│ ClickHouse/ClickHouse      │ fix           │   45297 │        43.9 │     131.0 │
│ ClickHouse/ClickHouse      │ test          │   14648 │        14.2 │     436.0 │
│ ClickHouse/ClickHouse      │ update        │   13149 │        12.7 │     114.0 │
│ ClickHouse/ClickHouse      │ feature       │   13093 │        12.7 │     773.0 │
│ ClickHouse/ClickHouse      │ documentation │    8212 │         8.0 │     360.0 │
│ ClickHouse/ClickHouse      │ removal       │    5148 │         5.0 │    1501.0 │
│ ClickHouse/ClickHouse      │ refactor      │[0m    1885 │         1.8 │     715.0 │
│ ClickHouse/ClickHouse      │ performance   │    1718 │         1.7 │     227.0 │
│ MaterializeInc/materialize │ test          │    4098 │        22.2 │     221.0 │
│ MaterializeInc/materialize │ feature       │    3786 │        20.5 │     203.0 │
│ MaterializeInc/materialize │ fix           │    3495 │        18.9 │      86.0 │
│ MaterializeInc/materialize │ documentation │    2521 │        13.6 │     160.0 │
│ MaterializeInc/materialize │ update        │    2297 │        12.4 │      67.0 │
│ MaterializeInc/materialize │ removal       │    1307 │         7.1 │     289.0 │
│ MaterializeInc/materialize │ refactor      │     607 │         3.3 │     325.0 │
│ MaterializeInc/materialize │ performance   │     381 │         2.1 │     325.0 │
│ StarRocks/starrocks        │ fix           │    8583 │        46.6 │      88.0 │
│ StarRocks/starrocks        │ documentation │    2767 │        15.0 │     259.0 │
│ StarRocks/starrocks        │ feature       │    2765 │        15.0 │     453.0 │
│ StarRocks/starrocks        │ update        │    1513 │         8.2 │      48.0 │
│          ·                 │   ·           │      ·  │          ·  │        ·  │
│          ·                 │   ·           │      ·  │          ·  │        ·  │
│          ·                 │   ·           [90m│      ·  │          ·  │        ·  │
│ risingwavelabs/risingwave  │ performance   │     363 │         3.8 │     384.0 │
│ risingwavelabs/risingwave  │ documentation │     327 │         3.4 │      92.0 │
│ risingwavelabs/risingwave  │ removal       │     240 │         2.5 │     230.0 │
│ risingwavelabs/risingwave  │ update        │     215 │         2.3 │     154.0 │
│ timescale/timescaledb      │ fix           │    1482 │        38.5 │     226.0 │
│ timescale/timescaledb      │ test          │     849 │        22.0 │    1378.0 │
│ timescale/timescaledb      │ feature       │     752 │        19.5 │     649.0 │
│ timescale/timescaledb      │ removal       │     318 │         8.3 │     991.0 │
│ timescale/timescaledb      │ refactor      │     180 │         4.7 │     877.0 │
│ timescale/timescaledb      │ update        │     158 │         4.1 │     228.0 │
│ timescale/timescaledb      │ documentation │      58 │         1.5 │      45.0 │
│ timescale/timescaledb      │ performance   │      54 │         1.4 │    1195.0 │
│ trinodb/trino              │ feature       │    6608 │        24.1 │     305.0 │
│ trinodb/trino              │ test          │    5444 │        19.9 │     214.0 │
│ trinodb/trino              │ fix           │    5227 │        19.1 │      61.0 │
│ trinodb/trino              │ removal       │    3789 │        13.8 │     193.0 │
│ trinodb/trino              │ update        │    3126 │        11.4 │      97.0 │
│ trinodb/trino              │ documentation │    1782 │         6.5 │     110.0 │
│ trinodb/trino              │ refactor      │     843 │         3.1 │     222.0 │
│ trinodb/trino              │ performance   │     566 │         2.1 │     218.0 │
├────────────────────────────┴───────────────┴─────────┴─────────────┴───────────┤
│ 104 rows (40 shown)                                                  5 columns │
└────────────────────────────────────────────────────────────────────────────────┘
…
